<?xml version="1.0" standalone="no"?>
<!DOCTYPE svg PUBLIC "-//W3C//DTD SVG 20010904//EN"
 "http://www.w3.org/TR/2001/REC-SVG-20010904/DTD/svg10.dtd">
<svg version="1.0" xmlns="http://www.w3.org/2000/svg"
 width="75.000000pt" height="45.000000pt" viewBox="0 0 75.000000 45.000000"
 preserveAspectRatio="xMidYMid meet">
<metadata>
Created by potrace 1.16, written by Peter Selinger 2001-2019
</metadata>
<g transform="translate(0.000000,45.000000) scale(0.100000,-0.100000)"
fill="#000000" stroke="none">
<path d="M253 323 c254 -3 257 -4 247 -23 -6 -11 -8 -25 -5 -30 4 -6 -88 -11
-247 -13 -187 -2 -162 -2 97 -3 193 0 316 2 275 6 -41 4 -69 7 -63 8 7 1 15
13 19 27 5 21 12 24 62 28 32 2 -100 3 -293 3 -265 -1 -288 -1 -92 -3z"/>
<path d="M102 184 c-12 -8 -22 -24 -22 -34 0 -15 -9 -20 -42 -23 -24 -2 115
-3 307 -3 256 0 302 2 170 6 -99 3 -174 9 -167 13 17 11 15 46 -3 53 -21 9
-65 -23 -65 -46 0 -18 -7 -20 -70 -20 -66 0 -69 1 -59 19 14 21 6 51 -13 51
-8 0 -24 -7 -36 -16z"/>
</g>
</svg>
